Race/unit;Build tool-tip;Ability tool-tip;Buff/debuff tool-tip;
NATURE;;"Enemy units that are attacked by an allied unit are slowed by 5%. (Stacks up to 3 times).

If an allied unit dies, the wrath of nature will entangle a random enemy unit for 2 seconds.";"-5% Movement Speed/Stack
-5% Attack Speed/Stack";
ENT;"ENT - Emergency NATURE Technician
ENTs are durable soldiers that use a high-tech exoskeleton to perform repairs.  They aren't particularly suited for fighting, but a saw designed to cut through titanium doesn't have much a problem with flesh. 
Melee range
Massive, Normal";;;
GUARDian;"GUARD - Goliath Urgent-response Assault and Recon Division
GUARDians are a battle-ready version of the ENT.  With short-range pile drivers fitted to each side and a rock-hard outer shell, the soldiers within are prepared to charge in to battle at any time.
Melee range
Massive, Normal";Encases a unit in a plasma field for 4 seconds, halting movement and dealing 10 damage per second.;;
RANGER;"RANGER - Really Angry Noobs Getting Easily Riled up
These guys really suck...  and you keep telling them that...  and they're getting pissed...  REALLY pissed.  Then they start throwing things...  things that explode.  It's a huge mess of blood and body parts and it's all your fault for riling them up.  Mission accomplished.
7.5 range
Armored, Piercing";This unit has a 33% chance to deal a critical hit of 10 damage.;;
MELIAI;"MELIAI - Mechanical Exoskeleton Lined With Iron Acidic Irritant.
MELIAIs are an elite group of NATURE military personnel that have donned an acid-resistant exoskeleton.  When preparing for battle, they coat themselves with a unique acid that prevents enemy entry and destroys enemy projectiles before they can penetrate the armor.
7.5 range
Armored, Piercing";This unit has a 40% chance to deal a critical hit of 85 damage.;;
SPRITE;"SPRITE - Super-Powered-Rifle Carrying Infantry Trained to Kill Everything
Their name says it all.
3 range
Light, Magic";;;
THUNDERBIRD;"THUNDERBIRD - The Haven's Ultimate NATURE Death Reaper and his Blazing Incendiary Rifle of Destruction.
The Haven was an institution for the most gifted soldiers to hone their battle skills.  The THUNDERBIRD was admitted and killed every last one of them.  He now offers his services to NATURE.
3 range
Massive, Magic";THUNDERBIRD's weapon has a wide spread.  An additional unit will take 85 damage each attack.;;
T.R.E.E. of Travel;"T.R.E.E. - Theoretical Realization of Extreme Exosoldiers
The T.R.E.E. of Travel is a defensive unit that provides nearby allies with the quickest routes to their target.
Melee range
Armored, Normal";Helps out his allies by reducing enemy movement speed by 25%;-25% Movement Speed;
T.R.E.E. of Time;"T.R.E.E. - Theoretical Realization of Extreme Exosoldiers
The T.R.E.E. of Time bends time and space around enemies, slowing their movements.
Melee range
Armored, Normal";Dibilitates nearby enemies, reducing movement speed by 50%.;-50% Movement Speed;
Halfbreed;"The Halfbreed is different from it's allied NATURE counterparts.  It is, in fact, a human bred with an AI device, producing a hybrid bio-tech human.  It possesses the creativity, luck, and will of a human and the processing power and precision of a machine.
Melee range
Massive, Normal";This unit has a 45% chance to reduce incoming damage by 10 + 25%.  Stuns the attacker for .5 seconds.;25% chance to reduce incoming damage by 10 + 25%.  Stuns the attacker for .5 seconds.;
Hercules;"Perfected from its prototype, the Hercules is a monstrous creation.  By utilizing all-encompassing AI algorithms and advanced nano technology, NATURE has formed a near-perfect human-machine hybrid.
Melee range
Massive, Siege";This unit has a 50% chance to reduce incoming damage by 20 + 50%.  Stuns the attacker for 1 second.;25% chance to reduce incoming damage by 20 + 50%.  Stuns the attacker for 1 second.;
YGGDRASIL;"YGGDRASIL - Your God-Given Dreams are now a Reality - A Synthetic, Iron-clad Life
YGGDRASIL is a prototype for synthetic life combined with advanced bio-tech.
Melee range
Mechanical, Magic";Heals 4 nearby allies for 35 + 2% HP every 5 seconds.;;
T.R.E.E. of Life;"T.R.E.E. - Theoretical Realization of Extreme Exosoldiers
The T.R.E.E. of Life infuses nearby allies with the will to live.  When the soldier inside dies, its parts move themselves to repair injured comrades.
3 range
Mechanical, Magic";"Heals 6 nearby allies for 35 + 2% HP every 4 seconds.
Upon dying this unit will heal 5 nearby allied units for 50 + 10% HP.";;
T.R.E.E. of Knowledge;"T.R.E.E. - Theoretical Realization of Extreme Exosoldiers
If knowledge is power, this T.R.E.E. knows everything.  Even after death it can kill enemies.
2.5 range
Mechanical, Chaos";"Nearby enemy units take 25% of their own damage (stacks up to 2 times).

Upon dying it deals 300 damage to 9 nearby enemies.";25% Damage taken by self;
Elemental;;"Every time one of your units is hit by an attack, it gains a static charge, reducing damage taken by 2.0%. 
(Stacks up to 10 times)

It also grants +1 energy per cast.";;
Proton;"Protons are elemental spirits with no weaknesses or strengths.
2.5 range
Light, Chaos";;;
Adept;"Adepts are fully developed Protons.
2.5 range
Light, Chaos";"The Adept can harness massive amounts of energy to significantly speed up its rate of fire.  Increases attack speed by 850% for 1 second and converts 50% of damage dealt into Spell Damage
Costs 20 energy.";+750% Attack Speed;
Aqua Spirit;"Aqua Spirits have attacks that richochet between units, dealing decreased damage to multiple units.
3.75 range
Armored, Normal";Attacks made by this unit splash to one other unit, dealing 75% damage. Consumes 5 energy.;;
Oceanus;"The Oceanus has more durable attacks that bounce between more units.
3.75 range
Armored, Normal";This unit's attacks bounce to two other enemies, dealing 75% less damage with each bounce. Consumes 5 energy.;;
Watcher;"Watchers are elementals that attack from the sky with magic.
3 range
Light, Magic";Target under the effects of Spell Attunement will take +25% (12.5% vs Boss) damage from Spell damage. (Stacks up to 4x). Lasts 4 seconds.;"Unit takes +25% Damage from Spell Damage
Unit takes +25% Damage from Spell Damage";
Violet;"Violets are elite Watchers.
3 range
Armored, Magic";The Violet pulses energy at a random unit in 6 range every 1/4 of a second, dealing 15 spell damage.;;
Mudman;"Mudman are hardy units that consume their enemies energy.
Melee range
Massive, Normal";Everytime a unit attacks the Mudman, they lose -40% movement speed for 6 seconds. Stacks up to 3x.;Unit has -40% Movement Speed per stack;
Golem;"Golems have armored bodies and devastatingly strong attacks.
Melee range
Massive, Siege";The Golem has acquired a hardened shell that reduces incoming damage.  For each point of energy, the Golem gains +0.1 armor;;
Disciple;"Disciples use magic enhanced piercing attacks to penetrate enemy armor and deal bonus damage.
5.5 range
Light, Pierce";This unit uses excess energy to enhance its attacks.  Costs 10 energy per attack, deals 65 extra damage.;;
Messiah;"Messiahs are sent to lead their people to salvation.  Their powers resemble that of their disciples.
5.5 range
Light, Magic";Increases nearby allied units' energy regeneration.;+1 Energy/s;
Seer of Darkness;"The Seer of Darkness is a powerful and deadly combination of elements.
2 range
Armored, Magic";"This unit uses energy to block damage.  All attacks against this unit while under this effect are reduced by 70% damage. 
Costs 10 energy per attack.";;
Fenix;"The Fenix is an untamed fire elemental.  The Fenix starts out as the Seer of Darkness and forms as the fire element consumes the other elements.
2 range
Armored, Magic";With excess energy, this unit will attack furiously at the enemy, dealing an additional 35 damage for no cost. (Unit must have 50+ energy to use);;
Beast;;Each time a Beast unit is attacked, the attacker suffers damage equal to 1% of its current life.;;
Zergling Warrior;"The Zergling Warrior is a fierce fighting unit.  Due to their small size, they usually fight in packs.
0.5 supply cost
Melee range
Light, Normal";The Zergling Warrior gashes units it attacks.  Gashing a unit slows its movement by 50% and attack by 25%.;"-25% Attack Speed
-50% Move Speed";
Zergling Savage;"The Zergling Savage is a more advanced form of its predecessor.  It relies on pure strength to tear the flesh from its enemies.
Melee range
Light, Normal";"The Zergling Savage deeply gashes units it attacks.  Units that are gashed take 10 damage each second, and move 70% slower and attack 40% slower.
(This takes priority over Gash but does not stack)";"-40% Attack Speed
-70% Move Speed
10 Damage/s";
Aberration Basher;"The Aberration Basher lays powerful blows on the enemy, sometimes with enough strength to incapacitate them for a while.Melee range
Massive, Siege";The Aberration Basher has a 25% chance to stun units in a 30 degree arc for 1.5 seconds, while dealing 20 bonus damage.  The stun is greatly reduced on bosses.;;
Aberration Pulverisher;"The Aberration Pulverizer hits with much more force than the Basher.  In addition, it can soak up quite a bit more damage.Melee range
Massive, Siege";The Aberration Pulverizer has a 40% chance to stun units in a 135 degree arc for 2 seconds, while dealing 125 bonus damage.  The stun is greatly reduced on bosses.;;
Harpy;"The Harpy fires venomous sacs out of its tail that cause havoc among affected units.
3 range
Light, Magic";This unit fires venomous sacs that poison the enemy, slowing its attack speed by 15% and movement speed by 25% for 5 seconds.  Deals 3 damage per second.;"-15% Attack Speed
-25% Movement Speed";
Medusa;"The Medusa is an elite form of the Harpy.  The medusa uses more potent poisons that cause increased damage to afflicted units.
3 range
Light, Magic";"This unit fires venomous sacs that poison a group of enemies, slowing their attack speeds by 25% and movement speeds by 35% for 5 seconds.  Deals 11 damage per second to each unit.
Envenoms a maximum of 3 targets per attack.";"-25% Attack Speed
-35% Movement Speed";
Roach Fighter;"The Roach Fighter is a formidable beast unit that uses acidic projectiles that burst upon contact to damage enemies.
4.25 range
Armored, Normal";The Roach Fight gives his nearby allies a small rush causing them to gain an 4% bonus to attack speed. (Stacks up to 2 times).;+4% Attack Speed;
Roach Champion;"The Roach Champion is the highest ranked Roach unit.  Its cries inspire all beast units to fight with increased vigor.
4.25 range
Armored, Normal";The Roach Champion and four nearby allied towers gain a 16% bonus to attack speed. (Stacks up to 2 times).;+16% Attack Speed;
Grizzly;"The Grizzly is among the most feared of all beasts.  Its attacks are devastatingly powerful, while its body is nearly impenetrable.
Melee range
Massive, Siege";;;
Greymane;"After centuries of war, Grizzlies are promoted to Greymanes.  With this status any beast units within range of the Greymane's cry will become enraged.
Melee range
Massive, Siege";"The Greymane has a 25% chance to reflected ranged attacks back to its attacker.

Every so often, the Greymane releases an invigorating roar that increases friendly units' attack damage by 9%.  This bonus stacks up to 3 times.";+9% Damage;
Spawn of Dragon;"The Spawn of Dragon is merely a foreshadowing of the impending adult dragon, however; Spawns are nothing to trifle with.  Their razor sharp talons can tear solid metal to shreds.
Melee range
Massive, Normal";This unit attacks everything around it, dealing 40% damage to a small area.;;
Dragon Aspect;"The Dragon Aspect is a fully-matured Spawn.  While rare in nature, these flying beasts have the ability and the desire to kill anything that moves. 5.5 range
Massive, Normal";The Dragon Aspect periodically fires emerald-colored fire dealing 300 splash damage.;;
Mechanical;;"Melee units take 8% less damage when another unit of the type is within 2 range. 

Ranged units deal +8% damage when another unit of the same type is within 2 range. 

Each additional unit of the same type within 2 range adds a +50% diminishing return bonus.";"Unit has +8% Damage from being in a Battalion. Each additional unit in the Battalion provides 50% diminishing returns on this bonus.

Unit has +0.8 Armor from being in a Battalion. Each additional unit in the Battalion provides 50% diminishing returns on this bonus.";
Peewee;"The Peewee is a sturdy fighter fresh from the academy and looking for action.
Melee range
Armored, Normal";;;
Veteran;"The Veteran has displayed his prowess over the years by exhibiting the most vital of skills for a soldier - survival.
Melee range
Armored, Normal";Veterans don't give in easily.  When the Veteran gets below 370 health, he receives a 30% bonus to attack damage, 2 additional armor, and 5% haste.;"While Life is less than 370:
+30% damage
+2 Armor";
Infantry;"Infantry are all raging alcoholics and trained snipers.  They hardly ever miss a shot, and they're also quite skilled with a sniper rifle.
6 range
Light, Piercing";"The Infantry keeps focused, trying to make a precise headshot at the target. 

If successful, the Infantry has a 25% chance to make a critical shot.";;
Pyro;"Equiped with the latest in barbecue weaponry, the Pyro can take heavy damage while serving the most delicious dishings of death.
2.25 range
Massive, Chaos";;;
Zeus;"The Zeus is named such because of its advanced electrical assault rifle.  Occasionally it will overcharge and release a burst of lightning on its target.
8 range
Light, Piercing";"Zeus infuses his weapon with lightning dealing an additional 45 damage for 10 energy.  With each attack, Zeus gains 1 energy. 

Attacks by this unit make the enemy take +15% damage from all sources. Stacks with other Zeus's ability (Max of 3)";-2 Armor;
Captain;"The Captain is a seasoned warrior.  His presence in a battle raises the morale of his allies and prompts the enemy to cower in the shadows.
Melee range
Armored, Normal";The Captain is a commanding presence on the battlefield.  All units within 8 range gain 7% attack damage.;8,00 %;
Admiral;"When the Admiral comes to the battlefield, his men are known to fight to the death - rarely ever their own.
Melee range
Armored, Normal";The Admiral is a commanding presence on the battlefield.  All units within 8 range gain 12% attack damage.;+12% Damage;
Tempest;"The Tempest commands dominance from above.  Enemy squadrons are crushed beneath its heavy missiles.
2.25 range
Massive, Siege";;;
Leviathan;"The Leviathan is known to fire massive projectiles that do more damage to the terrain than to the enemy; however, very little is left of either when it is through.
2.25 range
Massive, Siege";Missiles fired from the Leviathan explode, dealing 120 additional piercing damage to 3 nearby units.;;
Cyborg;"The Cyborg is a creation of Rory Swann's.  He has amassed an army of volunteers ready to be mechanified for the greater will of the human race.
Melee range
Mechanical, Normal";;;
Krogoth;"The Krogoth is Rory Swann's ultimate creation.  Soldiers must go through rigorous training and potentially fatal body enhancements in order to become one of these monstrous devices.
Melee range
Mechanical, Normal";Krogoth has a 25% chance to penetrate the enemy's weakspot, dealing double damage.;;
Neotank;"The Neotank is the most powerful and armored conventional tank known to exist.
5 range
Mechanical, Siege";The tanks weapon is capable of penetrating through enemy armor. Ignores 66% of armor;;
Doomsday Machine;"The Doomsday Machine is a Neotank that has been fitted with titanium plating and a rail gun in lieu of a cannon.  Nothing stands in its way, at least, nothing that wants to live.
6 range
Mechanical, Siege";The Doomsday Machine has a weapon that not only pierces through armor completely, but it goes even further to cause extra damage.;;
Shadow;;When Shadow units die, they have a 100% chance to revive as a shadow of their former self (-85% HP/Damage);;
Bone Warrior;"Typical undead fighter.  Has fast regeneration, but lacks endurance and power.
Melee range
Armored, Normal";Skeletons move faster and regenerate hitpoints more quickly.;;
Skeletor;"Skeletor is a post-mortem human body that was consumed by an enraged soul.  It now wanders the earth in search of placid souls it can torment.
Melee range
Armored, Normal";"Upon attacking a unit, Skeletor has a 20% chance to gain 10% damage for 7 seconds. (Stacks up to 5 times) 

Skeletor will absorb an attack that would kill it at a cost of 20 energy. 

Skeletor's attacks will steal 2 HP from its target and give to itself.";+10% Damage;
Fire Archer;"An archer in a previous life, the Fire Archer spares no one in the afterlife.  By enchanting its demonic arrows with fire, it is able to sear the flesh of its enemies from a distance.
5.75 range
Light, Piercing";Using energy, the Fire Archer fires a burst of flaming projectiles, dealing a total of 20 damage. Nearby enemies are set on fire and take +5% damage from all attacks and lose -1.5HP/s. Lasts 2 seconds.;Takes +5% more damage and deals 3 damage per second.;
Dark Mage;"Cursed at birth, Dark mages were once summoners whose creatures cast them into despair.
4.5 range
Light, Magic";"The Dark Mage can entangle the mind of an ally, increasing its attack speed by 20% for 20 seconds. Nightmare's gain +1 attacks for Counter-Attacks and Doppelganger gains +2 Attacks for Counter-Attacks 
Costs 30 energy.";+30% Attack Speed;
Carrion Spitter;"An animated mangled corpse.  Attacks up to 2 targets with deadly insects.
5 range
Armored, Piercing";The unit's attacks slow the target's movement speed by 10% and attack speed by 5%.  Physical ability.;"-20% Movement Speed
-10% Attack Speed";
Night Crawler;"Crawler of the night.  Can summon insects at any instant to destroy its enemies.
5 range
Armored, Piercing";The unit's attacks slow the target's movement speed by 20% and attack speed by 15%.  Physical ability.;"-20% Movement Speed
-15% Attack Speed";
Gateguard;"A strong fighter.  Calls ancient allies to aid him in battle.
Melee range
Massive, Normal";"Conjure Fanatic for 60 seconds:

Fanatic:
470 HP
Massive, Siege 

Units are taunted and vortexed into the Gate Guard. For every unit taunted, Gate Guard gains +0.4 armor for 2 seconds. 15s cooldown.";Gate Guard taunts enemies and gains +0.5 armor per enemy;
Harbringer;"Summons void demons to serve as he strives for vengeance.
Melee range
Massive, Siege";"Conjure Fiend for 60 seconds:

Fiend:
185 HP
Massive, Normal 

Units are taunted and vortexed into the Harbinger. For every unit taunted, Harbinger gains +0.4 armor for 3 seconds. 15s cooldown.";Gate Guard taunts enemies and gains +0.5 armor per enemy;
Bone Overseer;"From its perch in the sky it feeds upon the flesh of the living.
2.25 range
Armored, Magic";Melee units within 6 range of this unit gain an 10% lifestealing attack. Range units receive a 7% lifestealing attack.;"Lifesteal:
+10% for Melee
+7% for Range";
Keeper of Souls;"An elite overseer whose rage drives it to devour whole cities on a whim.
2.25 range
Armored, Magic";Melee units within 6 range of this unit gain a 16% lifestealing attack. Ranged units receive a 10% lifestealing attack.;"Lifesteal:
+16% for Melee
+10% for Range";
Nightmare;"Moving swiftly through the night, Nightmare stalks its prey, striking from the shadows.
Melee range
Light, Normal";"The Nightmare is capable of quickly parrying attacks and delivering a deadly counter-attack. 
30% Chance to Attack Target Upon Hit
Only counters targets within 2 range.";;
Doppelganger;"Fallen so far into the shadow realm, it possesses the ability to invade dreams to utterly destroy its enemies.
Melee range
Light, Chaos";"The Doppelganger is capable of quickly parrying attacks and delivering a deadly counter-attack. 
30% Chance to Attack Target Upon Hit";;
Lord of Death;"Although the Lord of Death has limited power against the living, he frequently calls the Great Inferno to slaughter the mortal.
4 range
Armored, Chaos";"The Lord of Death calls the great Inferno to aid him in battle.  Lasts 60 seconds.

Inferno:
850 HP
Medium, Chaos";;
Hades;"Hades calls upon his enslaved wife, Peresephone, to make him a wicked sandwich.
6.0 range
Armored, Chaos";"Hades summons Diablo to his side.  Lasts 60 seconds.

Diablo:
1200 HP
Medium, Chaos
Raise Dead";;
Ancient;;;Each Kill Gives 8% of the Target's Maximum Life as Shields;
Sentinel;"Sentinels stand watch over the ancients providing advanced warning and first line of defense against invaders
Melee range
Light, Pierce";"Summons nearby allies to the battle. 
Increases nearby movement stack by 8% and attack speed by 3%. (Up to 5 stack)";;
Defender;"Each Defender has been training for over a century and are the backbone of the Ancient's front line. They have a brotherhood bond increasing each others damage.
Melee range
Armored, Normal";"Defenders have been training together for centuries and know how to fight more effectively with each other 
Increases nearby Defender damage by +5 (8 Stack) 
Increases nearby Sentinel damage by +2 (4 Stack)";+4 Damage (up to 4x Stack);
Encoder;"Encoders are fundamental to Ancient's knowledge banks. They have to ability to strip away an enemy's strength and apply it to themselves..
3 range
Biological, Magic";"Analyzes the enemy allowing Ancients to attack the unit optimally.
Removes Spell Immunity and Target takes 8 Spell Damage everytime it's hit.
Trigger Cooldown of 0.75 Seconds";;
Encrypter;"A highly trained encrypter is paramount to keeping the Ancient's secrets safe. They have the ability to stop enemies dead in their tracks.
4 range
Biological, Magic";The encrypter weave togethers an inpenetratble shield that blocks 80% of one attack.;;
Magnetosphere Resonator;"Magnetosphere Resonators is a fundamental support unit for Ancients. They generate an magnetosphere forcefield which boosts the shields of nearby allies.
5 range
Massive, Magic";"Magnetosphere Resonators weave a defensive wave-length into Ancient's shields increasing their defensive power. 
+60 Shields and +2 Shield Regeneration";+40 Shields and +2 Shield Regeneration;
Prismatic Resonator;"Prismatic Resonators are an amazing feat of engineering that require the very rare prismatium. They create a shroud of polarized energy deflecting enemy attacks.
5 range
Massive, Magic";"Enhances the Ancients shields by polarizing the wavelength such that it neutralizes enemies attacks and boosts defense. 
+120 Max Shields, and + Shield Regeneration";+80 Shields and +8 Shield Regeneration;
Preserver;"Preservers are tasked with safeguarding the inner-most elite of the Ancients. They can quickly reform the bodies of the dead into sentinels in the heat of battle.
2 range
Mechanical, Chaos";"Preservers will preserve the bioenergies of the dead converting them into a makeshift Sentinel. 
Nearby allies are ressurected as a Sentinel";;
Archive;"The Archive is a heartbeat of the Ancients. It contains all the knowledge accumulated by the race. The Archive will perform parity checks restoring the defenses of nearby units.
4 range
Mechanical, Chaos";"Archive will periodically perform a system-wide check that will restore allies to their rightful stature. 
Restores 32+8% Shields to nearby allies every 8 seconds.";;
Warden;"Wardens are the ultimate defenders of the Ancients. They have been fighting for a millenium and know how to strike fear into the hearts of their enemies.
Melee range
Armored, Spell";"Wardens are charged with the ability to defend the Ancestor by banishing away their foes. 
Nearby units hit by the Warden are thrown back with great force";;
Elite Warden;"Elite Wardens are the rarest of the Ancients. They tell their enemies where they will dine tonight.
Melee range
Armored, Spell";"Elite Wardens obliterate any enemies that come close to threatening the Ancestor. 
Nearby units hit by the Elite Warden are thrown back and damaged.";;
Matriarch;"Matriarch's are the daughters of the Elders. Capable of empowering Sentinels and Defenders.
6 range
Biological, Chaos";"Matriarch's empower nearby allies to protect the Ancients with greater strength. 
They gain +42% Shields. (Max Stack of 4)";Sentinels and Defenders gain +42% Shields [Max 4 Stack];
Elder;"The beginning and the end of the Ancient race. Elders will bestow upon its troops the ability to destroy the world.
6 range
Biological, Chaos";"The final song of the Elders. If called upon, they bestow the song of the requiem upon a lucky ally (Elders cannot buff themselves). 
Grants 24+18% Damage, 18% Attack Rate, and +1.5 Shield Armor.";;
Celestial;;Whenever a Celestial unit dies, it will heal a nearby wounded ally for 20% of the dead unit's HP and grant +20% damage for 5 seconds.;This unit has 20% increased damage.;
Cherub;"Cherubs have low health for their cost, but make up for this with powerful attacks.
3 range
Light, Magic";;;
Seraphim;"Seraphim is a powerful celestial unit.  Like its predecessor, it has low health but high damage.
3.0 range
Light, Magic";"Each attack reduces the target's damage by -10% and armor by -0.3. Stacks up to 4x.
Lasts 10 seconds.";Unit loses -0.3 armor per hit and -10% Damage (Up to 4 Stack);
Spirit;"The Spirit observes battles from above, typcially providing passive support to defend the back line.
Melee range
Armored, Normal";Raises one of your units to the heavens.  Ascended units will respawn near your Security System with 40% life and 70% damage when they die.;This unit will be revived in a weaker form at the Security System when it dies.;
Daemon;"Daemons are malevolent spirits.  They thirst for the torment of others.  In order to satisfy this craving, they frequently possess mortal bodies and force them to kill loved ones just to enjoy their misery after releasing control.
Melee range
Armored, Normal";The Daemon torments enemies in front of him.  He projects a line of 10 pulses every 3 seconds.  Each pulse can damage a unit for 40 damage.;Terror wave in a random direction every 3 seconds.;
Saint;"Saints are holy beings that support allies with healing powers.
4 range
Light, Magic";Cleanses an allied unit, healing for 40 HP and granting 1 armor for 4 seconds.;+1 Armor;
Celestian;"Celestians are esteemed holy beings that support allies with great healing powers.
5 range
Light, Magic";Purifies an allied unit, healing for 100 HP and granting 2 armor for 6 seconds.;+2 Armor;
Cupid;"Cupid used to enjoy making mortals fall in love.  The more he worked, the more he realized the only truly immortal bond for humans is their final destination of death.  Cupid makes sure this bond forms as quickly as possible.  He now enjoys making his enemies fall in battle.
5 range
Light, Pierce";"Infatuates a unit.  As a result, the targeted unit heals the units it attacks for 20 life.
Cooldown: 20s
Lasts 5 seconds.";+20 Life to Target/Attack;
Fallen;"Cast down from Heaven, the Fallen are a group of powerful demons who once sought the throne.
Melee range
Massive, Normal";Every time a unit attacks the Fallen, it has an 6% chance to become Tempted.  Tempted units lose -70 HP/S.  Temptation is permanent.;-70HP/S;
Archangel;"The Archangel is a powerful Celestian with the ability to purge enemies of their iniquities.
7.0 range
Light, Chaos";Purges a random enemy unit, dealing 150 damage and permanently removing spell immunity.  7 second cooldown.;;
Vanguard;"Vanguards are battle-hardened Celestians.
Melee range
Mechanical, Siege";;;
Templar;"Templar is a title given to only the elite combat-trained celestial units.  Templars specialize in hand-to-hand combat.
Melee range
Mechanical, Siege";Attacks made against this unit increase the attack speeds of nearby allies by 1% for 1 second.  Stacks up to 30 times.;+1% Attack Speed/Stack;
Prophet;"Prophets are the mouth through which deities speak to mortals in the physical world.  They have amazing future sight.
5 range
Biological, Magic";The Prophet can foresee nearly all of his opponent's moves.  Grants +50% evasion and and a 40% chance to deal 2x damage.;"+20% Evasion
+30% chance to deal 2x";
Auror;"The actions of Aurors are so rarely witnessed that their existence is believed to be a fictional one.  When they do appear, no single strike can fell them.
5 range
Biological, Magic";With each attack, the Auror comes one step closer to Absolution.  Every attack and kill grants the Auror +5 damage (up to +150).;+5 Damage/Attack;
Deity;"Deities arise and die with those that hail them.  Their attacks are devastating, their defenses rock-solid.
Melee range
Massive, Chaos";;;
Theos;"Theos reigns over the Celestial beings.  His dominance is apparent:  A radiant ruler in times of peace. A generator of endless destruction in times of war.
7.0 range
Biological, Creation";Every time Theos attacks, a Celestian is bound to this world.  Bound units are released after 40 seconds.;;
Ghost;;"All Ghost units have a 7.5% chance to evade all attacks. 

If no other Ghost units are within 1 range, the dodge chance doubles to 15%.";"Unit is close to another Ghost and has only 7.5% chance to dodge
Unit is isolate and has 15% chance to dodge all attacks";
Spectre;"Spectres have fast, low damage attacks, with little damage resistance.
5.5 range
Biological, Magic";Gives this unit a 15% chance to dodge an attack.;;
Wraith;"Wraiths are violent spirits that exist only to torment their enemies.
6 range
Light, Magic";"Slows an enemy's attack speed and movement speed by 20% for 7 seconds.
Costs 4 energy.";"-20% Movement Speed
-20% Attack Speed";
Mecurial;"The Mercurial is a deadly force to be reckoned with.  It possesses the ability to slow a foe's reflexes to near-zero.
6.5 range
Biological, Magic";"Slows an enemy's attack speed by 30% and movement speed by 40% for 7 seconds.
Costs 6 energy.";"-40% Movement Speed
-30% Attack Speed";
Wanderer;"Wanderers attempt to possess their targets, inflicting damage.  They have strong melee attacks that are more effective against biological enemies.
Melee range
Armored, Normal";;;
Soul of Hero;"Hero's Souls are powerful melee attackers that use a greater force of possession on the enemy.  They are hard to take down and hit hard on biological units.
Melee range
Armored, Normal";;;
Soul of Villain;"When manifested, the Villain's Soul is capable of debilitating the defenses of an enemy.
4.25 range
Light, Magic";Attacks by this unit make the enemy take +20% damage from all sources. Stacks with other Soul of villains (Max of 6);-2 Armor;
Phantom;"Phantoms use magic to attack multiple enemies at the same time.  They have weak single-target attacks, but can be deadly to large groups of enemies.
3.5 range
Light, Spell";;;
Hellraiser;"The Hell Raiser is an elite form of the Phantom.
3.5 range
Light, Spell";;;
Outcast;"Outcasts are powerful melee ghosts that viciously tear at their enemies.
Melee range
Massive, Normal";;;
Forsaken One;"The Forsaken One is an Elite form of the Outcast.  Its powerful attacks are particularly effective against mechanical units.
Melee range
Light, Siege";The Forsaken One dodges 20% of all attacks.  Whenever an attack is dodged, he gains 40 extra damage on his next attack (Stacks up to 5 times).;+40 Damage/Stack;
Apparition;"Apparitions are reainmations of powerful warlocks.  They possess great debilitating abilities.
6 range
Armored, Piercing";;;
Grave Keeper;"The Gravekeeper is a fully-formed Apparition.
6 range
Armored, Piercing";The Gravekeeper lets out a foul cry that strikes fear into all enemies nearby. Melee attacks get -15% damage and ranged attacks get -10%. (Stacks up to 3 times);"-15% Melee Damage
-10% Ranged Damage";
Dark Priest;"Dark Priests are souls of magicians that have been reclaimed by dark spirits.  Their magical prowess is surpassed by few.
7 range
Biological, Magic";Deals 45 damage each second while slowing the target's attack speed by 25%.  Haunt consumes 12 energy. Lasts for 8 seconds.;"-25% Attack Speed
45 Damage/s";
Meridian;"The Meridian is a creature that is neither ghost nor mortal.  It's powers are therefore uncannily deadly to mortals and ghosts alike.
7 range
Biological, Magic";"Deals 100 damage/sec.
It also lowers attack speed by -30% and movement speed by -50%.. If the target dies while under this effect, it will deal 85 damage to surrounding enemies. Consumes 20 energy. 3 Sec cooldown.";"-50% Movement Speed
-50% Attack Speed
90 Damage/s";
Automaton;;Every unit you build while you have the Automaton Builder add one stack of Technology. While at 5 stacks of Technology your next unit/upgrade costs 20% less minerals.;;
T-800 TERMINATOR MK II;"Terminators will stop at nothing until their target is dead by unleashing a barrage of bullets.
IT WONT BE BACK
6 range
Armored, Pierce";"Terminator is equipped with depleted uranium bullets that are capable of piercing armor with great velocity. 
Attacks Ignore Armor";;
T-501 OBLITERATOR;"Obliterators will take on enemy armor and slow down enemies with high-impact concussion shells.
GORT'S BROTHER
6 range
Armored, Normal";"Concussion Rounds shock the target with a pressurized soundwave causing them to slow down nearby units. 
Targets are slowed by 40%";;
T-101 PULVERIZER;"Pulverizers can beat down entire armys with explosive ammunition.
KABOOM
4 range
Armored, Siege";"Pulverizer has tempermental explosive rounds that can damage nearby enemies. 
33% Chance to deal 50% damage to nearby units.";;
W4LL-3 SALVAGER;"Salvagers are solid melee units that are able to reuse components from broken Automaton units.
EVA?
Melee range
Massive, Normal";"Salvager is capable of quickly scavanging the battlefield for additional armor. 
Nearby fallen allies grant +1 armor to the Salvager (Max +3)";Gains +1 Armor per fallen Automaton (Max +3);
ST-D4T4 ANDROID;"Androids are sophisticated robots that are capable of reassembling themselves after death.
Droid > iPhone
Melee range
Mechanical, Normal";"Androids have become sophisticated enough to reassemble themselves after death but loses all armor upon reassembly.

Revives after 4 seconds";;
BB-2001 BRAWLER MK IV;"Brawlers provide high tankability and damage without any special functions.
BattleBot Champion
Melee range
Armored, Siege";;;
R1D1 ASTROMECH;"Astromech Droids are the latest in support technology. Capable of uplinking themselves to a nearby robot.
R2D2, IS THAT YOU?
Melee range
Mechanical, None";"This Astromech Droid will uplink to a nearby Automaton unit. 
Adds 300 HP, 1 Armor, +5 + 15% Damage, +10% Attack speed, and +10% Movement Speed to a unit.";;
SW3-NTZ WELDTECH RELAY;"Weldtech Relays are the maintainence backbone for Automatons. They can quickly weld nearby autos in the heat of a battle.
OBEYS THE 3 LAWS
6 range
Mechanical, None";"Auto Welding constantly heals a friendly Automaton 
Heals for 12+0.25% HP/S";;
T2J-N2N AEW&C SATALITE;"Orbital Satalites provides advanced tatical ground surveillance that bolsters the attack range of Automaton units.
DANGER WILL ROBINSON
7 range
Light, None";"Orb Sat will pick out the strongest nearby enemy unit and order nearby ranged towers within 4 range of the OrbSat to focus fire. Ordered towers will have their unit-facing automatically set to face the target and will gain a momentary burst of movement speed. 

Orbital Satalite relays advanced battlefield information to the Automatons allowing them to fight more effectively. 
Allies +1 Attack Range (Max of 3)";;
CAR-BN PROTOTYPE;"U87 Prototype is an experimental machine with random functionality.
An Ancient Cylon
5 range
Light, Chaos";"U87 Prototypes are extremely unstable machines. They have extremely high DPS but their performane can vary. 
10% Chance to Malfunction and lose 10% of it's HP";;
BSG-102 CENTURION;"Centurions are powerful tanks with a sophisticated networking system. In a previous time period, theres a myth that Centurion's were capable of sharing damage, making them unstoppable. If such technology ever existed, its long gone now.
BY YOUR COMMAND
Melee range
Massive, Normal";When the Centurion gets below 800 health, he goes on a rage, giving him bonus armor and hp regenartion.;"While Life is less than 800:
+5 HP regen
+2 Armor";
NFALL-201 ASIMOV;"Asimovs are complex metal gear machines with the ability to paralyze foes.
I, Not Robot
2.5 range
Massive, Siege";"The Asimovs massive size lets them rock the world. Nearby enemies cower in fear. 
35% Chance to stun enemies near the Asimov for 1 second.";;
UL-T0 GRAV LANCE;"Gravity Lances are highly experimental weaponary capable of providing a strong gravimetric beam that strikes through multiple enemies.
BIZYNGA
7 range
Massive, Magic";This highly experimental weapon pierces through enemies in a line.;;
KR-0LK LASER BATTERY;"Laser Batteries are the ulimate in suppressive fire. Capable of providing quick and fast fire support on the front range.
PEW PEW PEW
4.5 range
Massive, Pierce";;;
BR-14N MISSILE ARRAY;"Missile Barrages provide heavy artillery support with orbital rockets capable of destroying hordes.
CHU CHU CHU
7 range
Massive, Siege";"Missile Platform is capable of firing splash damaging rockets that temporary stun incoming invaders. 
0.25 Second stun.";;
N3K-R0 DREADNOUGHT MK II;"Dreadnoughts are the ultimate in destruction. They can be upgraded piecewise to customize desired attributes.
It's the end of the world as we know it
Melee range
Mechanical, Normal";;;
PRPN-F1RB EXECUTIONER;"Executioner Class Dreadnought is specialized for melee combat with an electrically charged adamantium saw. They dominate the battlefield forceing ranged-units into melee combat. They have the ability to discharge built up energy to the environment damaging nearby enemies.
And I feel fine
Melee range
Mechanical, Normal";"Executioners have a large and fearsome size that strikes fear in nearby enemies to attack at melee range. 
Targets within 2 range are reduced to melee combat. 

Executioner will periodically discharge built-up energy onto an enemy target dealing spell damage. 
200 Spell damage to 1.5 range around a target.";;
CEL-012 ANNIHILATOR;"Annihilator Class Dreadnought is specialized for ranged combat with focus on eradicating single targets with ease. Their High Intensity Beam melts away at their target's armor and Purifer beam increases with damage as it aligns it's beam prisms.
HWEE!
7 range
Mechanical, Chaos";"Annihilator will gradually align its focus prisms to optimize attacks on its target. Loses adjustment after switching targets. 
+10% Damage/second (+100% Max) 

Annihilator's High Intensity Beam melts away enemy armor as if it were butter. 
-0.1 Armor/Second";;
TOR-N0 UPHOLDER;"Upholder Class Dreadnought is specialized for support. They have the ability to block incoming damage for units inside it's shield at the cost of energy. Additionally they can lockdown targets in a warpfield preventing them from attacking.
I don't have anything cool here
2.5 range
Mechanical, Pierce";"Upholder is equipped with a graviton suspension system that will periodically freeze an enemy in time.  
Target cannot attack or move for 2 seconds 

Upholder is equipped with a powerful energy shield generator that will protect its allies against incoming damage. 
Damage over 50 is absorbed at a cost of 10 Damage/1 energy.";;
Zergling;"It's a Zergling.

+1 income.
Light, Normal";;;
Marine;"It's a Marine.

+2 income.
Light, Piercing";;;
Roach;"It's a Roach.

+2 income.
Armored, Normal
Super Speed: Moves faster than normal sends.";;;
Zealot;"It's a Zealot.

+3 income.
Massive, Normal
Maul:  20% chance on attack to stun for 1 second.";;;
Mutalisk;"It's a Mutalisk.

+5 income.
Light, Piercing";;;
Medic;"It's a Medic.

+4 income.
Light, Magic
Healing Aura:  Nearby units regenerate +3 Life per second.";;+3 Life/s;
Marauder;"It's a Marauder.

+6 income.
Armored, Piercing
Slow Speed: Moves slower than normal sends.";;;
Goliath;"It's a Goliath.

+4 income.
Mechanical, Piercing
Damage Aura:  Increases the damage of nearby friendly units by 13%.";;+13% Damage;
Immortal;"It's an Immortal .

+6 income.
Armored, Normal
Armor Aura:  Increases the armor of nearby allies by +1.";;+1 Armor;
Phoenix;"It's a Phoenix.

+9 income.
Light, Magic";;;
Siege Tank;"It's a Siege Tank.

+10 income.
Mechanical, Siege
Security Codes:  Deals double damage versus the Security System.";;;
Firebat;"It's a Firebat.

+10 income.
Massive, Normal
Splash Attack:  Attacks deal 33% splash damage
Super Speed: Moves faster than normal sends.";;;
Queen;"It's a Queen.

+11 income.
Armored, Normal
Slow Aura:  Slows nearby enemy units by 33% in 6.5 range.";;-40% Movement Speed;
Hydralisk;"It's a Hydralisk.

+12 income.
Armored, Piercing
Slowing Attack:  Attacks made by this unit slow their target's attack and move speed by 10%. Target takes 45 damage over 3 seconds..";;;
Hellion;"It's a Hellion (Hwee!).

+14 income.
Light, Magic
Sunder:  Attacks by this unit reduce their target's armor by 2.";;-2 Armor;
Powermortal;"It's a Powermortal.

+15 income.
Massive, Normal
Improved Parts:  This unit has rapid regeneration.";;;
Dark Templar;"It's a Dark Templar.

+15 income.
Armored, Normal
Swift Aura:  Increases the movement speed of nearby allied units.";;+15% Movement Speed;
Colossus;"It's a Colossus.

+17 income.
Armored, Siege
Security Codes:  Deals double damage against the Security System.";;;
High Templar;"It's a High Templar.

+17 income.
Light, Magic
Bloodlust:  Increases one allied unit's attack and movement speeds by 20%.";;"+20% Movement Speed
+25% Attack Speed";
Megazergling;"It's a Megazergling.

+17 income.
Massive, Normal
Lifesteal Aura:  Gives nearby wave units a lifestealing attack. (Works on Melee and Ranged Waves)";;15% Lifesteal;
Banshee;"It's a Banshee.

+22 income.
Light, Magic
Attacks do 20% splash.";;;
Ultralisk;"It's an Ultralisk.

+25 income.
Mechanical, Siege
Spell Immunity:  Untargetable by abilities and takes no spell damage.
Cleaving Attacks:  Attacks do 25% splash.";;Immune to most spell effects and damage.;
Shadow Templar;"It's a Shadow Templar.

+26 income.
Armored, Normal
Thrust:  25% chance to deal 150 bonus damage and stun for 2 seconds with each attack.
Super Speed: Moves faster than normal sends.";;;
Thor;"It's a Thor.

+30 income.
Massive, Piercing
Cripple:  Slows the attack and movement speeds of attacked units by 20%.  Deals 65 damage per second.  Lasts 6 seconds.
Spell Immunity";;"-20% Movement Speed
-20% Attack Speed
65 Damage/s";